Compare R and Python: supervised learning
…
rf_model = rand_forest() %>%
  set_args(trees = 100) %>% 
  set_engine("randomForest") %>% 
  set_mode("classification")

Defining a workflow with recipe and model

rf_workflow = workflow() %>% 
  add_recipe(tissue_recipe) %>% 
  add_model(rf_model)

predict(rf_workflow %>% fit(data = training(tissue_split)), 
        new_data = testing(tissue_split))

## # A tibble: 47 x 1
##    .pred_class
##    <fct>      
##  1 cerebellum 
##  2 cerebellum 
##  3 cerebellum 
##  4 cerebellum 
##  5 cerebellum 
##  6 cerebellum 
##  7 cerebellum 
##  8 colon      
##  9 colon      
## 10 colon      
## # … with 37 more rows
