Compare R and Python: workflows
…
R: workflowr

rf_workflow = workflow() %>% 
  add_recipe(penguins_recipe) %>% 
  add_model(rf_model)

rf_pred_tbl = predict(rf_workflow %>% fit(data = penguins_train), 
                      new_data = penguins_test)

rf_pred_tbl = rf_pred_tbl %>% 
  dplyr::mutate(true = penguins_test$species %>% factor)

rf_pred_tbl

## # A tibble: 193 x 2
##    .pred_class true  
##    <fct>       <fct> 
##  1 Adelie      Adelie
##  2 Adelie      Adelie
##  3 Adelie      Adelie
##  4 Adelie      Adelie
##  5 Adelie      Adelie
##  6 Adelie      Adelie
##  7 Adelie      Adelie
##  8 Adelie      Adelie
##  9 Adelie      Adelie
## 10 Adelie      Adelie
## # … with 183 more rows
…
